Year,Temperature departure,Warmest year ranking,Climate,Climate feel
1948,-0.2,53,Cool,Normal cool
1949,-0.2,54,Cool,Normal cool
1950,-1.3,70,Cool,Normal cool
1951,-0.6,65,Cool,Normal cool
1952,0.8,19,Hot,High hot
1953,0.8,20,Hot,High hot
1954,0.2,44,Hot,Normal hot
1955,-0.2,52,Cool,Normal cool
1956,-0.8,68,Cool,High cool
1957,-0.3,60,Cool,Normal cool
1958,0.5,30,Cool,Normal cool
1959,-0.4,61,Cool,Normal cool
1960,0.4,32,Cool,Normal cool
1961,-0.2,57,Cool,Normal cool
1962,-0.1,46,Cool,Normal cool
1963,0.2,37,Hot,Normal hot
1964,-0.6,64,Cool,High cool
1965,-0.6,66,Cool,High cool
1966,-0.3,59,Cool,Normal cool
1967,-0.4,62,Cool,Normal cool
1968,0.2,39,Cool,Normal cool
1969,0.4,36,Cool,Normal cool
1970,-0.2,56,Cool,Normal cool
1971,-0.1,45,Cool,Normal cool
1972,-2,71,Cool,High cool
1973,0.6,23,Cool,High hot
1974,-0.8,67,Cool,High cool
1975,-0.1,49,Cool,Normal cool
1976,0.5,41,Hot,Normal hot
1977,1,15,Hot,High hot
1978,-0.5,63,Cool,Normal cool
1979,-0.2,55,Cool,Normal cool
1980,0.4,34,Hot,Normal hot
1981,2.1,5,Hot,High hot
1982,-1.2,69,Cool,High cool
1983,0.1,40,Hot,Normal hot
1984,0.2,38,Hot,Normal hot
1985,0.1,47,Hot,Normal hot
1986,0.3,43,Hot,Normal hot
1987,1.5,11,Hot,High hot
1988,0.8,21,Hot,High hot
1989,-0.2,58,Cool,Normal cool
1990,-0.1,51,Cool,Normal cool
1991,0.4,33,Hot,Normal hot
1992,-0.1,50,Cool,Normal cool
1993,0.4,35,Hot,Normal hot
1994,0.5,31,Hot,Normal hot
1995,0.6,27,Hot,High hot
1996,0.4,48,Hot,Normal hot
1997,0.6,25,Hot,High hot
1998,2.3,3,Hot,High hot
1999,1.7,8,Hot,High hot
2000,0.9,16,Hot,High hot
2001,1.8,7,Hot,High hot
2002,0.5,28,Hot,Normal hot
2003,1.1,14,Hot,High hot
2004,1.2,42,Hot,High hot
2005,1.6,9,Hot,High hot
2006,2.4,2,Hot,High hot
2007,0.8,17,Hot,High hot
2008,0.6,24,Hot,High hot
2009,0.8,18,Hot,High hot
2010,3.1,1,Hot,High hot
2011,1.4,12,Hot,High hot
2012,1.8,6,Hot,High hot
2013,0.7,22,Hot,High hot
2014,0.6,26,Hot,High hot
2015,1.3,13,Hot,High hot
2016,2.1,4,Hot,High hot
2017,1.5,10,Hot,High hot
2018,0.5,29,Hot,Normal hot
